<svg width="25" height="16" viewBox="0 0 25 16" fill="none" xmlns="http://www.w3.org/2000/svg">
<path d="M1.61377 7.20117C1.06148 7.20117 0.61377 7.64889 0.61377 8.20117C0.61377 8.75346 1.06148 9.20117 1.61377 9.20117V7.20117ZM24.0961 8.90828C24.4866 8.51775 24.4866 7.88459 24.0961 7.49407L17.7321 1.1301C17.3416 0.73958 16.7085 0.73958 16.3179 1.1301C15.9274 1.52063 15.9274 2.15379 16.3179 2.54432L21.9748 8.20117L16.3179 13.858C15.9274 14.2486 15.9274 14.8817 16.3179 15.2722C16.7085 15.6628 17.3416 15.6628 17.7321 15.2722L24.0961 8.90828ZM1.61377 9.20117H23.389V7.20117H1.61377V9.20117Z" fill="#6B6B6B"/>
</svg>
